…
6)shooting distance
===================

6.1) dplyr table

``` r
made_shot_prop<-shot_data %>%
                group_by(shot_distance)%>%
                summarise(made_shot_prop = (sum(shot_made_flag == 'made shot'))/length(shot_made_flag))
made_shot_prop
```

    ## # A tibble: 56 x 2
    ##    shot_distance made_shot_prop
    ##            <int>          <dbl>
    ##  1             0          0.841
    ##  2             1          0.668
    ##  3             2          0.534
    ##  4             3          0.373
    ##  5             4          0.411
    ##  6             5          0.286
    ##  7             6          0.396
    ##  8             7          0.395
    ##  9             8          0.463
    ## 10             9          0.321
    ## # ... with 46 more rows
…
